<?xml version="1.0" encoding="utf-8"?>
<!-- Generator: Adobe Illustrator 15.0.2, SVG Export Plug-In . SVG Version: 6.00 Build 0)  -->
<!DOCTYPE svg PUBLIC "-//W3C//DTD SVG 1.1//EN" "http://www.w3.org/Graphics/SVG/1.1/DTD/svg11.dtd">
<svg version="1.1" id="Layer_1" xmlns="http://www.w3.org/2000/svg" xmlns:xlink="http://www.w3.org/1999/xlink" x="0px" y="0px"
	 width="21.166px" height="18.783px" viewBox="0 0 21.166 18.783" enable-background="new 0 0 21.166 18.783" xml:space="preserve">
<g>
	<defs>
		<rect id="SVGID_1_" width="21.166" height="18.783"/>
	</defs>
	<clipPath id="SVGID_2_">
		<use xlink:href="#SVGID_1_"  overflow="visible"/>
	</clipPath>
	<path clip-path="url(#SVGID_2_)" fill="#999999" d="M19.654,3.664H18.92h-0.098c-0.33,0.025-0.592,0.301-0.592,0.639v13.839
		c0,0.354,0.287,0.641,0.641,0.641h0.783c0.836,0,1.512-0.678,1.512-1.515v-1.378v-2.84V9.629V6.002V5.176
		C21.166,4.34,20.49,3.664,19.654,3.664"/>
	<path clip-path="url(#SVGID_2_)" fill="#999999" d="M16.359,3.665h-0.098h-0.559c-0.012,0.001-0.027,0.001-0.041,0.001
		s-0.027,0-0.041-0.001c-0.135-0.018-0.24-0.116-0.27-0.245c-0.006-0.023-0.01-0.048-0.01-0.072c0-0.025,0.004-0.051,0.01-0.072
		V2.557C15.352,1.145,14.207,0,12.793,0h-4.42c-1.391,0-2.524,1.11-2.559,2.493v0.131v0.664C5.818,3.307,5.82,3.327,5.82,3.348
		c0,0.02-0.002,0.039-0.006,0.059C5.789,3.541,5.68,3.646,5.543,3.665C5.529,3.666,5.515,3.666,5.502,3.666
		c-0.016,0-0.03,0-0.043-0.001H4.904H4.806c-0.33,0.025-0.591,0.3-0.591,0.638v13.84c0,0.354,0.287,0.641,0.64,0.641h11.456
		c0.354,0,0.641-0.287,0.641-0.641V4.303C16.951,3.964,16.689,3.689,16.359,3.665 M7.455,3.311V2.605V2.557V2.509
		C7.48,2.034,7.869,1.652,8.347,1.641c0.008-0.002,0.018-0.002,0.026-0.002c0.006,0,0.016,0,0.023,0.002h2.01h0.354h2.01
		c0.008-0.002,0.016-0.002,0.023-0.002s0.015,0,0.023,0.002c0.48,0.012,0.869,0.393,0.895,0.869v0.047v0.049v0.73v0.012v0.01
		c-0.006,0.158-0.123,0.287-0.278,0.307c-0.013,0.001-0.028,0.001-0.043,0.001c-0.013,0-0.026,0-0.041-0.001H10.68h-0.191H7.814
		C7.801,3.666,7.787,3.666,7.773,3.666c-0.013,0-0.029,0-0.041-0.001c-0.144-0.02-0.26-0.135-0.277-0.28
		C7.453,3.372,7.453,3.359,7.453,3.348C7.453,3.333,7.453,3.322,7.455,3.311"/>
	<path clip-path="url(#SVGID_2_)" fill="#999999" d="M2.344,3.664H2.246H1.512C0.676,3.664,0,4.34,0,5.176v0.826v3.627v3.422v2.84
		v1.378c0,0.837,0.676,1.515,1.512,1.515h0.783c0.354,0,0.641-0.287,0.641-0.641V4.303C2.936,3.965,2.676,3.689,2.344,3.664"/>
</g>
</svg>
