<?xml version="1.0" encoding="utf-8"?>
<!-- Generator: Adobe Illustrator 15.0.2, SVG Export Plug-In . SVG Version: 6.00 Build 0)  -->
<!DOCTYPE svg PUBLIC "-//W3C//DTD SVG 1.1//EN" "http://www.w3.org/Graphics/SVG/1.1/DTD/svg11.dtd">
<svg version="1.1" id="Layer_1" xmlns="http://www.w3.org/2000/svg" xmlns:xlink="http://www.w3.org/1999/xlink" x="0px" y="0px"
	 width="25.242px" height="17.168px" viewBox="0 0 25.242 17.168" enable-background="new 0 0 25.242 17.168" xml:space="preserve">
<g>
	<defs>
		<rect id="SVGID_1_" width="25.242" height="17.168"/>
	</defs>
	<clipPath id="SVGID_2_">
		<use xlink:href="#SVGID_1_"  overflow="visible"/>
	</clipPath>
	<path clip-path="url(#SVGID_2_)" fill="#999999" d="M22.588,7.804c-0.102-0.03-0.196-0.077-0.28-0.138
		c-0.246-0.173-0.406-0.46-0.406-0.784c0-0.025,0-0.05,0.002-0.075c0.003-0.038,0.008-0.076,0.016-0.113
		c0-0.001,0.001-0.003,0.001-0.005c0.029-0.24,0.045-0.486,0.045-0.735C21.965,2.666,19.3,0,16.012,0
		c-2.056,0-3.868,1.043-4.939,2.628v0.001c-0.014,0.024-0.029,0.047-0.046,0.068c-0.002,0.003-0.003,0.006-0.005,0.009
		c-0.175,0.235-0.455,0.386-0.77,0.386c-0.176,0-0.341-0.048-0.483-0.131C9.726,2.937,9.686,2.908,9.648,2.877
		C8.979,2.43,8.175,2.167,7.31,2.167c-2.328,0-4.215,1.887-4.215,4.215c0,0.143,0.007,0.283,0.021,0.422
		c0.008,0.04,0.013,0.082,0.015,0.124c0,0.016,0.001,0.032,0.001,0.05c0,0.337-0.174,0.634-0.438,0.805
		C2.649,7.813,2.602,7.838,2.552,7.86C1.028,8.707,0,10.333,0,12.201c0,2.74,2.222,4.967,4.966,4.967h4.592h1.437h0.451h2.851h0.479
		h1.439h4.059c2.747,0,4.968-2.227,4.968-4.967C25.242,10.291,24.167,8.634,22.588,7.804"/>
</g>
</svg>
