<?xml version="1.0" encoding="utf-8"?>
<!-- Generator: Adobe Illustrator 15.0.2, SVG Export Plug-In . SVG Version: 6.00 Build 0)  -->
<!DOCTYPE svg PUBLIC "-//W3C//DTD SVG 1.1//EN" "http://www.w3.org/Graphics/SVG/1.1/DTD/svg11.dtd">
<svg version="1.1" id="Layer_1" xmlns="http://www.w3.org/2000/svg" xmlns:xlink="http://www.w3.org/1999/xlink" x="0px" y="0px"
	 width="32px" height="30px" viewBox="0 0 32 30" enable-background="new 0 0 32 30" xml:space="preserve">
<g>
	<g>
		<defs>
			<rect id="SVGID_1_" width="32" height="30"/>
		</defs>
		<clipPath id="SVGID_2_">
			<use xlink:href="#SVGID_1_"  overflow="visible"/>
		</clipPath>
		<path clip-path="url(#SVGID_2_)" fill="#859092" d="M32,2.012v0.07V4.98v0.07c-0.016,1.04-0.812,1.889-1.831,2.002h-0.45H2.281
			H1.831C0.802,6.939,0,6.069,0,5.014V2.047C0,0.927,0.899,0.017,2.021,0h0.072h27.814h0.072C31.088,0.017,31.981,0.909,32,2.012"/>
		<path clip-path="url(#SVGID_2_)" fill="#859092" d="M32,24.852v0.28v2.679v0.279C31.928,29.157,31.037,30,29.948,30H2.055
			C0.931,30,0.018,29.101,0,27.986v-0.07v-2.89v-0.07c0.015-1.068,0.856-1.938,1.916-2.01h0.281h27.61h0.282
			C31.112,23.016,31.931,23.831,32,24.852"/>
		<path clip-path="url(#SVGID_2_)" fill="#859092" d="M32,13.52v2.967c0,1.06-0.806,1.931-1.842,2.038h-0.434H2.173H1.938
			C0.856,18.466,0,17.572,0,16.479V13.52c0-1.098,0.862-1.992,1.952-2.046h0.211h27.675h0.211C31.138,11.528,32,12.422,32,13.52"/>
	</g>
</g>
</svg>
