<?xml version="1.0" encoding="utf-8"?>
<!-- Generator: Adobe Illustrator 15.0.2, SVG Export Plug-In . SVG Version: 6.00 Build 0)  -->
<!DOCTYPE svg PUBLIC "-//W3C//DTD SVG 1.1//EN" "http://www.w3.org/Graphics/SVG/1.1/DTD/svg11.dtd">
<svg version="1.1" id="Layer_1" xmlns="http://www.w3.org/2000/svg" xmlns:xlink="http://www.w3.org/1999/xlink" x="0px" y="0px"
	 width="313px" height="160px" viewBox="0 0 313 160" enable-background="new 0 0 313 160" xml:space="preserve">
<path fill-rule="evenodd" clip-rule="evenodd" fill="#1D1D1D" d="M0,0l251,1c0,0,48.599,62.439,62,80c-9.596,12.975-60,79-60,79H0V0
	z"/>
</svg>
